acls:
  enable: false
  modify_groups: []
  modify_users: []
  ui_users: []
  view_groups: []
  view_users: []
file_systems: []
master:
  env:
    PYSPARK_DRIVER_PYTHON: venv/bin/python
    PYSPARK_PYTHON: venv/bin/python
    SPARK_CONF_DIR: /etc/spark3/conf
    SPARK_HOME: /usr/lib/spark3
  files:
    airflow.keytab:
      size: 0
      source: file:///pytest/path/to/airflow.keytab
      timestamp: 0
      type: FILE
      visibility: APPLICATION
    venv:
      size: 0
      source: hdfs:///wmf/cache/artifacts/airflow/search/mjolnir-2.4.0.conda.tgz
      timestamp: 0
      type: ARCHIVE
      visibility: APPLICATION
  log_level: INFO
  resources:
    fpgas: 0
    gpus: 0
    memory: 4096
    vcores: 1
  script: spark3-submit --driver-cores 2 --conf spark.executorEnv.PYSPARK_DRIVER_PYTHON=venv/bin/python
    --conf spark.executorEnv.PYSPARK_PYTHON=venv/bin/python --conf spark.executorEnv.SPARK_HOME=/usr/lib/spark3
    --conf spark.executorEnv.SPARK_CONF_DIR=/etc/spark3/conf --master yarn --conf
    spark.dynamicAllocation.enabled=true --conf spark.dynamicAllocation.maxExecutors=25
    --conf spark.shuffle.service.enabled=true --conf spark.yarn.maxAppAttempts=1 --conf
    spark.sql.shuffle.partitions=1000 --conf spark.executor.memoryOverhead=38952m
    --conf spark.dynamicAllocation.executorIdleTimeout=180s --conf spark.task.cpus=6
    --conf spark.yarn.appMasterEnv.SPARK_CONF_DIR=/etc/spark3/conf --conf spark.yarn.appMasterEnv.SPARK_HOME=/usr/lib/spark3
    --conf spark.yarn.appMasterEnv.PYSPARK_PYTHON=venv/bin/python --conf spark.yarn.appMasterEnv.PYSPARK_DRIVER_PYTHON=venv/bin/python
    --archives 'hdfs:///wmf/cache/artifacts/airflow/search/mjolnir-2.4.0.conda.tgz#venv'
    --jars hdfs:///wmf/cache/artifacts/airflow/search/mjolnir-2.0.jar,hdfs://analytics-hadoop/wmf/refinery/current/artifacts/refinery-hive-shaded.jar
    --executor-cores 6 --executor-memory 2g --driver-memory 3g --keytab airflow.keytab
    --principal airflow --name mjolnir_weekly__hyperparam-enwiki-dbn-20180215-query_explorer-pruned_mrmr__20230306
    --queue production --deploy-mode cluster venv/bin/mjolnir-utilities.py hyperparam
    --date 20230306 --output-path /path/to/mjolnir.model_parameters/date=20230306/wikiid=enwiki/labeling_algorithm=dbn/feature_set=20180215-query_explorer-pruned_mrmr
    --training-files-path hdfs://analytics-hadoop/wmf/data/discovery/mjolnir/training_files/date=20230306/wikiid=enwiki/labeling_algorithm=dbn/feature_set=20180215-query_explorer-pruned_mrmr
    --output-table mjolnir.model_parameters --initial-num-trees 100 --final-num-trees
    500 --iterations 150 --num-cv-jobs 75
max_attempts: 1
name: Airflow SparkSkeinSubmitHook skein launcher mjolnir_weekly__hyperparam-enwiki-dbn-20180215-query_explorer-pruned_mrmr__20230306
node_label: ''
queue: production
services: {}
tags: []
user: ''
