acls:
  enable: false
  modify_groups: []
  modify_users: []
  ui_users: []
  view_groups: []
  view_users: []
file_systems: []
master:
  env:
    PYSPARK_DRIVER_PYTHON: venv/bin/python
    PYSPARK_PYTHON: venv/bin/python
    SPARK_CONF_DIR: /etc/spark3/conf
    SPARK_HOME: /usr/lib/spark3
  files:
    airflow.keytab:
      size: 0
      source: file:///pytest/path/to/airflow.keytab
      timestamp: 0
      type: FILE
      visibility: APPLICATION
    venv:
      size: 0
      source: hdfs:///wmf/cache/artifacts/airflow/search/discolytics-0.17.0.conda.tgz
      timestamp: 0
      type: ARCHIVE
      visibility: APPLICATION
  log_level: INFO
  resources:
    fpgas: 0
    gpus: 0
    memory: 4096
    vcores: 1
  script: spark3-submit --driver-cores 2 --conf spark.executorEnv.PYSPARK_DRIVER_PYTHON=venv/bin/python
    --conf spark.executorEnv.PYSPARK_PYTHON=venv/bin/python --conf spark.executorEnv.SPARK_HOME=/usr/lib/spark3
    --conf spark.executorEnv.SPARK_CONF_DIR=/etc/spark3/conf --master yarn --conf
    spark.dynamicAllocation.enabled=true --conf spark.dynamicAllocation.maxExecutors=20
    --conf spark.shuffle.service.enabled=true --conf spark.yarn.maxAppAttempts=1 --conf
    spark.yarn.appMasterEnv.SPARK_CONF_DIR=/etc/spark3/conf --conf spark.yarn.appMasterEnv.SPARK_HOME=/usr/lib/spark3
    --conf spark.yarn.appMasterEnv.PYSPARK_PYTHON=venv/bin/python --conf spark.yarn.appMasterEnv.PYSPARK_DRIVER_PYTHON=venv/bin/python
    --archives 'hdfs:///wmf/cache/artifacts/airflow/search/discolytics-0.17.0.conda.tgz#venv'
    --executor-cores 1 --executor-memory 4G --driver-memory 4G --keytab airflow.keytab
    --principal airflow --name ores_predictions_hourly__extract_articletopic_predictions__20210124
    --queue production --deploy-mode cluster venv/bin/prepare_mw_rev_score.py --input-partition
    event.mediawiki_page_outlink_topic_prediction_change_v1/year=2021/month=1/day=24/hour=2
    --input-kind mediawiki_page_prediction_classification_change --output-partition
    discovery.ores_articletopic/year=2021/month=1/day=24/hour=2/source=ores_predictions_hourly
    --prediction outlink-topic-model --alias articletopic
max_attempts: 1
name: Airflow SparkSkeinSubmitHook skein launcher ores_predictions_hourly__extract_articletopic_predictions__20210124
node_label: ''
queue: production
services: {}
tags: []
user: ''
