acls:
  enable: false
  modify_groups: []
  modify_users: []
  ui_users: []
  view_groups: []
  view_users: []
file_systems: []
master:
  env:
    SPARK_CONF_DIR: /etc/spark3/conf
    SPARK_HOME: /usr/lib/spark3
  files:
    airflow.keytab:
      size: 0
      source: file:///pytest/path/to/airflow.keytab
      timestamp: 0
      type: FILE
      visibility: APPLICATION
  log_level: INFO
  resources:
    fpgas: 0
    gpus: 0
    memory: 4096
    vcores: 1
  script: spark3-submit --driver-cores 2 --conf spark.executorEnv.SPARK_HOME=/usr/lib/spark3
    --conf spark.executorEnv.SPARK_CONF_DIR=/etc/spark3/conf --master yarn --conf
    spark.dynamicAllocation.enabled=true --conf spark.dynamicAllocation.maxExecutors=64
    --conf spark.shuffle.service.enabled=true --conf spark.yarn.maxAppAttempts=1 --conf
    spark.yarn.appMasterEnv.SPARK_CONF_DIR=/etc/spark3/conf --conf spark.yarn.appMasterEnv.SPARK_HOME=/usr/lib/spark3
    --executor-cores 4 --executor-memory 8g --driver-memory 8g --keytab airflow.keytab
    --principal airflow --name subgraph_query_metrics_daily__extract_subgraph_query_metrics__20220703
    --class org.wikidata.query.rdf.spark.metrics.SubgraphMetricsLauncher --queue production
    --deploy-mode cluster hdfs:///wmf/cache/artifacts/airflow/search/rdf-spark-tools-0.3.135-jar-with-dependencies.jar
    query-metrics --event-query-table event.wdqs_external_sparql_query/year=2022/month=7/day=3
    --processed-query-table discovery.processed_external_sparql_query/year=2022/month=7/day=3/wiki=wikidata
    --matched-Qitems-table discovery.subgraph_qitems_match/year=2022/month=7/day=3/wiki=wikidata
    --matched-predicates-table discovery.subgraph_predicates_match/year=2022/month=7/day=3/wiki=wikidata
    --matched-uris-table discovery.subgraph_uri_match/year=2022/month=7/day=3/wiki=wikidata
    --subgraph-query-table discovery.subgraph_queries/year=2022/month=7/day=3/wiki=wikidata
    --top-n 100 --general-query-metrics-table discovery.general_query_metrics/year=2022/month=7/day=3/wiki=wikidata
    --general-subgraph-query-metrics-table discovery.general_subgraph_query_metrics/year=2022/month=7/day=3/wiki=wikidata
    --per-subgraph-query-metrics-table discovery.per_subgraph_query_metrics/year=2022/month=7/day=3/wiki=wikidata
max_attempts: 1
name: Airflow SparkSkeinSubmitHook skein launcher subgraph_query_metrics_daily__extract_subgraph_query_metrics__20220703
node_label: ''
queue: production
services: {}
tags: []
user: ''
