acls:
  enable: false
  modify_groups: []
  modify_users: []
  ui_users: []
  view_groups: []
  view_users: []
file_systems: []
master:
  env:
    SPARK_CONF_DIR: /etc/spark3/conf
    SPARK_HOME: /usr/lib/spark3
  files:
    airflow.keytab:
      size: 0
      source: file:///pytest/path/to/airflow.keytab
      timestamp: 0
      type: FILE
      visibility: APPLICATION
  log_level: INFO
  resources:
    fpgas: 0
    gpus: 0
    memory: 3815
    vcores: 1
  script: spark3-submit --driver-cores 1 --conf spark.executorEnv.SPARK_HOME=/usr/lib/spark3
    --conf spark.executorEnv.SPARK_CONF_DIR=/etc/spark3/conf --master yarn --conf
    spark.dynamicAllocation.maxExecutors=128 --conf spark.yarn.appMasterEnv.SPARK_CONF_DIR=/etc/spark3/conf
    --conf spark.yarn.appMasterEnv.SPARK_HOME=/usr/lib/spark3 --executor-cores 2 --executor-memory
    12G --driver-memory 4G --keytab airflow.keytab --principal airflow --name refine_webrequest_hourly_upload__refine_webrequest__20230411
    --class org.apache.spark.sql.hive.thriftserver.WMFSparkSQLCLIDriver --queue production
    --deploy-mode client hdfs:///wmf/cache/artifacts/airflow/analytics/wmf-sparksqlclidriver-1.0.0.jar
    -f hdfs://analytics-hadoop/wmf/refinery/current/hql/webrequest/refine_webrequest_hourly.hql
    -d refinery_jar=hdfs:///wmf/cache/artifacts/airflow/analytics/refinery-hive-0.2.22-shaded.jar
    -d source_table=wmf_raw.webrequest -d webrequest_source=upload -d destination_table=wmf.webrequest
    -d year=2023 -d month=4 -d day=11 -d hour=15 -d record_version=0.0.27 -d coalesce_partitions=256
    -d spark_sql_shuffle_partitions=256 -d excluded_row_ids=
max_attempts: 1
name: Airflow SparkSkeinSubmitHook skein launcher refine_webrequest_hourly_upload__refine_webrequest__20230411
node_label: ''
queue: production
services: {}
tags: []
user: ''
