acls:
  enable: false
  modify_groups: []
  modify_users: []
  ui_users: []
  view_groups: []
  view_users: []
file_systems: []
master:
  env:
    SPARK_CONF_DIR: /etc/spark3/conf
    SPARK_HOME: /usr/lib/spark3
  files:
    airflow.keytab:
      size: 0
      source: file:///pytest/path/to/airflow.keytab
      timestamp: 0
      type: FILE
      visibility: APPLICATION
  log_level: INFO
  resources:
    fpgas: 0
    gpus: 0
    memory: 3815
    vcores: 2
  script: spark3-submit --driver-cores 2 --conf spark.executorEnv.SPARK_HOME=/usr/lib/spark3
    --conf spark.executorEnv.SPARK_CONF_DIR=/etc/spark3/conf --master yarn --conf
    spark.dynamicAllocation.maxExecutors=128 --conf spark.yarn.appMasterEnv.SPARK_CONF_DIR=/etc/spark3/conf
    --conf spark.yarn.appMasterEnv.SPARK_HOME=/usr/lib/spark3 --executor-cores 2 --executor-memory
    8G --driver-memory 4G --keytab airflow.keytab --principal airflow --name webrequest_actor_metrics_hourly__compute_webrequest_actor_metrics__20230101
    --class org.apache.spark.sql.hive.thriftserver.WMFSparkSQLCLIDriver --queue production
    --deploy-mode client hdfs:///wmf/cache/artifacts/airflow/analytics/wmf-sparksqlclidriver-1.0.0.jar
    -f hdfs://analytics-hadoop/wmf/refinery/current/hql/webrequest/actor/compute_webrequest_actor_metrics_hourly.hql
    -d source_table=wmf.webrequest -d destination_table=wmf.webrequest_actor_metrics_hourly
    -d refinery_hive_jar_path=hdfs:///wmf/cache/artifacts/airflow/analytics/refinery-hive-0.2.1-shaded.jar
    -d version=0.1 -d coalesce_partitions=2 -d year=2023 -d month=1 -d day=1 -d hour=1
max_attempts: 1
name: Airflow SparkSkeinSubmitHook skein launcher webrequest_actor_metrics_hourly__compute_webrequest_actor_metrics__20230101
node_label: ''
queue: production
services: {}
tags: []
user: ''
