acls:
  enable: false
  modify_groups: []
  modify_users: []
  ui_users: []
  view_groups: []
  view_users: []
file_systems: []
master:
  env:
    PYSPARK_DRIVER_PYTHON: venv/bin/python
    PYSPARK_PYTHON: venv/bin/python
    SPARK_CONF_DIR: /etc/spark3/conf
    SPARK_HOME: venv/lib/python3.10/site-packages/pyspark
  files:
    airflow.keytab:
      size: 0
      source: file:///pytest/path/to/airflow.keytab
      timestamp: 0
      type: FILE
      visibility: APPLICATION
    venv:
      size: 0
      source: hdfs:///wmf/cache/artifacts/airflow/analytics/mediawiki-content-dump-0.1.0.dev0-fix-canary-for-visbility.conda.tgz
      timestamp: 0
      type: ARCHIVE
      visibility: APPLICATION
  log_level: INFO
  resources:
    fpgas: 0
    gpus: 0
    memory: 30518
    vcores: 4
  script: venv/bin/spark-submit --driver-cores 4 --conf spark.executorEnv.PYSPARK_DRIVER_PYTHON=venv/bin/python
    --conf spark.executorEnv.PYSPARK_PYTHON=venv/bin/python --conf spark.executorEnv.SPARK_CONF_DIR=/etc/spark3/conf
    --conf spark.executorEnv.SPARK_HOME=venv/lib/python3.10/site-packages/pyspark
    --master yarn --conf spark.executor.memoryOverhead=4G --conf spark.sql.shuffle.partitions=131072
    --conf spark.shuffle.io.retryWait=15s --conf spark.shuffle.io.maxRetries=15 --conf
    spark.network.timeout=600s --conf spark.driver.maxResultSize=8G --conf spark.shuffle.file.buffer=1m
    --conf spark.shuffle.service.index.cache.size=256m --conf spark.io.compression.lz4.blockSize=512KB
    --conf spark.shuffle.service.enabled=False --conf spark.dynamicAllocation.enabled=False
    --conf spark.sql.adaptive.coalescePartitions.enabled=True --conf spark.jars.packages=org.apache.iceberg:iceberg-spark-runtime-3.3_2.12:1.2.1
    --conf 'spark.driver.extraJavaOptions=-Divy.cache.dir=/tmp/pytest_user/ivy_spark3/cache
    -Divy.home=/tmp/pytest_user/ivy_spark3/home' --conf spark.jars.ivySettings=/etc/maven/ivysettings.xml
    --conf spark.yarn.archive=hdfs:///user/spark/share/lib/spark-3.3.2-assembly.zip
    --conf spark.yarn.appMasterEnv.SPARK_HOME=venv/lib/python3.10/site-packages/pyspark
    --conf spark.yarn.appMasterEnv.SPARK_CONF_DIR=/etc/spark3/conf --conf spark.yarn.appMasterEnv.PYSPARK_PYTHON=venv/bin/python
    --conf spark.yarn.appMasterEnv.PYSPARK_DRIVER_PYTHON=venv/bin/python --archives
    'hdfs:///wmf/cache/artifacts/airflow/analytics/mediawiki-content-dump-0.1.0.dev0-fix-canary-for-visbility.conda.tgz#venv'
    --num-executors 100 --executor-cores 2 --executor-memory 20G --driver-memory 32G
    --keytab airflow.keytab --principal airflow --name dumps_merge_backfill_to_wikitext_raw__spark_create_intermediate_table__20230901
    --queue production --deploy-mode client venv/bin/backfill_create_intermediate_table.py
    --backfill_source_table wmf.mediawiki_wikitext_history --visibility_source_table
    wmf_raw.mediawiki_revision --intermediate_table tmp.tmp_dumps_merge_backfill_to_wikitext_raw_20230801
    --intermediate_table_location hdfs://analytics-hadoop/wmf/tmp/analytics/dumps/dumps_merge_backfill_to_wikitext_raw/20230801
    --snapshot 2023-08
max_attempts: 1
name: Airflow SparkSkeinSubmitHook skein launcher dumps_merge_backfill_to_wikitext_raw__spark_create_intermediate_table__20230901
node_label: ''
queue: production
services: {}
tags: []
user: ''
