acls:
  enable: false
  modify_groups: []
  modify_users: []
  ui_users: []
  view_groups: []
  view_users: []
file_systems: []
master:
  env:
    PYSPARK_DRIVER_PYTHON: venv/bin/python
    PYSPARK_PYTHON: venv/bin/python
    SPARK_CONF_DIR: /etc/spark3/conf
    SPARK_HOME: venv/lib/python3.10/site-packages/pyspark
  files:
    airflow.keytab:
      size: 0
      source: file:///pytest/path/to/airflow.keytab
      timestamp: 0
      type: FILE
      visibility: APPLICATION
    venv:
      size: 0
      source: hdfs:///wmf/cache/artifacts/airflow/analytics/mediawiki-content-dump-0.1.0.dev0-fix-canary-for-visbility.conda.tgz
      timestamp: 0
      type: ARCHIVE
      visibility: APPLICATION
  log_level: INFO
  resources:
    fpgas: 0
    gpus: 0
    memory: 15259
    vcores: 4
  script: venv/bin/spark-submit --driver-cores 4 --conf spark.executorEnv.PYSPARK_DRIVER_PYTHON=venv/bin/python
    --conf spark.executorEnv.PYSPARK_PYTHON=venv/bin/python --conf spark.executorEnv.SPARK_CONF_DIR=/etc/spark3/conf
    --conf spark.executorEnv.SPARK_HOME=venv/lib/python3.10/site-packages/pyspark
    --master yarn --conf spark.driver.maxResultSize=8G --conf spark.shuffle.service.enabled=False
    --conf spark.dynamicAllocation.enabled=False --conf spark.jars.packages=org.apache.iceberg:iceberg-spark-runtime-3.3_2.12:1.2.1
    --conf 'spark.driver.extraJavaOptions=-Divy.cache.dir=/tmp/pytest_user/ivy_spark3/cache
    -Divy.home=/tmp/pytest_user/ivy_spark3/home' --conf spark.jars.ivySettings=/etc/maven/ivysettings.xml
    --conf spark.yarn.archive=hdfs:///user/spark/share/lib/spark-3.3.2-assembly.zip
    --conf spark.yarn.appMasterEnv.SPARK_HOME=venv/lib/python3.10/site-packages/pyspark
    --conf spark.yarn.appMasterEnv.SPARK_CONF_DIR=/etc/spark3/conf --conf spark.yarn.appMasterEnv.PYSPARK_PYTHON=venv/bin/python
    --conf spark.yarn.appMasterEnv.PYSPARK_DRIVER_PYTHON=venv/bin/python --archives
    'hdfs:///wmf/cache/artifacts/airflow/analytics/mediawiki-content-dump-0.1.0.dev0-fix-canary-for-visbility.conda.tgz#venv'
    --num-executors 64 --executor-cores 2 --executor-memory 16G --driver-memory 16G
    --keytab airflow.keytab --principal airflow --name dumps_merge_events_to_wikitext_raw__spark_visibility_merge_into__20230823
    --queue production --deploy-mode client venv/bin/visibility_merge_into.py event.mediawiki_revision_visibility_change
    wmf_dumps.wikitext_raw_rc2 2023 8 23 1
max_attempts: 1
name: Airflow SparkSkeinSubmitHook skein launcher dumps_merge_events_to_wikitext_raw__spark_visibility_merge_into__20230823
node_label: ''
queue: production
services: {}
tags: []
user: ''
