acls:
  enable: false
  modify_groups: []
  modify_users: []
  ui_users: []
  view_groups: []
  view_users: []
file_systems: []
master:
  env:
    SPARK_CONF_DIR: /etc/spark3/conf
    SPARK_HOME: /usr/lib/spark3
  files:
    airflow.keytab:
      size: 0
      source: file:///pytest/path/to/airflow.keytab
      timestamp: 0
      type: FILE
      visibility: APPLICATION
  log_level: INFO
  resources:
    fpgas: 0
    gpus: 0
    memory: 3815
    vcores: 2
  script: spark3-submit --driver-cores 2 --conf spark.executorEnv.SPARK_HOME=/usr/lib/spark3
    --conf spark.executorEnv.SPARK_CONF_DIR=/etc/spark3/conf --master yarn --conf
    spark.dynamicAllocation.enabled=true --conf spark.dynamicAllocation.maxExecutors=16
    --conf spark.shuffle.service.enabled=true --conf spark.yarn.maxAppAttempts=1 --conf
    spark.yarn.appMasterEnv.SPARK_CONF_DIR=/etc/spark3/conf --conf spark.yarn.appMasterEnv.SPARK_HOME=/usr/lib/spark3
    --executor-cores 4 --executor-memory 8G --driver-memory 4G --keytab airflow.keytab
    --principal airflow --name druid_load_network_flows_internal_daily__load_to_druid__20230303
    --class org.wikimedia.analytics.refinery.job.HiveToDruid --queue production --deploy-mode
    client hdfs:///wmf/cache/artifacts/airflow/analytics/refinery-job-0.2.11-shaded.jar
    --database event --table network_flows_internal --druid_datasource network_flows_internal
    --since 2023-03-02T00 --until 2023-03-03T00 --timestamp_column stamp_inserted
    --timestamp_format auto --query_granularity minute --segment_granularity day --num_shards
    1 --map_memory 2048 --reduce_memory 16384 --hadoop_queue production --druid_host
    an-druid1001.eqiad.wmnet --druid_port 8090 --count_metric_name count --dimensions
    ip_dst,ip_proto,ip_src,port_dst,port_src,peer_ip_src,ip_version,region --metrics
    bytes,packets
max_attempts: 1
name: Airflow SparkSkeinSubmitHook skein launcher druid_load_network_flows_internal_daily__load_to_druid__20230303
node_label: ''
queue: production
services: {}
tags: []
user: ''
