acls:
  enable: false
  modify_groups: []
  modify_users: []
  ui_users: []
  view_groups: []
  view_users: []
file_systems: []
master:
  env:
    PYSPARK_DRIVER_PYTHON: venv/bin/python
    PYSPARK_PYTHON: venv/bin/python
    SPARK_CONF_DIR: /etc/spark3/conf
    SPARK_HOME: /usr/lib/spark3
  files:
    airflow.keytab:
      size: 0
      source: file:///pytest/path/to/airflow.keytab
      timestamp: 0
      type: FILE
      visibility: APPLICATION
    venv:
      size: 0
      source: hdfs:///wmf/cache/artifacts/airflow/research/knowledge_gaps.tgz
      timestamp: 0
      type: ARCHIVE
      visibility: APPLICATION
  log_level: INFO
  resources:
    fpgas: 0
    gpus: 0
    memory: 3815
    vcores: 2
  script: spark3-submit --driver-cores 2 --conf spark.executorEnv.PYSPARK_DRIVER_PYTHON=venv/bin/python
    --conf spark.executorEnv.PYSPARK_PYTHON=venv/bin/python --conf spark.executorEnv.SPARK_HOME=/usr/lib/spark3
    --conf spark.executorEnv.SPARK_CONF_DIR=/etc/spark3/conf --master yarn --conf
    spark.shuffle.service.enabled=true --conf spark.executor.memoryOverhead=2048 --conf
    spark.dynamicAllocation.enabled=true --conf spark.dynamicAllocation.maxExecutors=4
    --conf spark.sql.shuffle.partitions=2 --conf spark.yarn.appMasterEnv.SPARK_CONF_DIR=/etc/spark3/conf
    --conf spark.yarn.appMasterEnv.SPARK_HOME=/usr/lib/spark3 --conf spark.yarn.appMasterEnv.PYSPARK_PYTHON=venv/bin/python
    --conf spark.yarn.appMasterEnv.PYSPARK_DRIVER_PYTHON=venv/bin/python --archives
    'hdfs:///wmf/cache/artifacts/airflow/research/knowledge_gaps.tgz#venv' --executor-cores
    4 --executor-memory 8G --driver-memory 4G --keytab airflow.keytab --principal
    airflow --name knowledge_gaps_pipeline__output_datasets__20220301 --queue production
    --deploy-mode client venv/bin/knowledge_gaps_datasets.py --hdfs_dir /tmp/research/knowledge_gaps/20220301T000000
    --database_name knowledge_gaps_dev --store_metric_features --store_content_gap_features
    --store_csv_format --table_prefix output_
max_attempts: 1
name: Airflow SparkSkeinSubmitHook skein launcher knowledge_gaps_pipeline__output_datasets__20220301
node_label: ''
queue: production
services: {}
tags: []
user: ''
