{
  "datahub_conn_id": "datahub_kafka_jumbo",
  "mces": [
    {
      "proposedSnapshot": [
        "com.linkedin.pegasus2avro.metadata.snapshot.DatasetSnapshot",
        {
          "urn": "urn:li:dataset:(urn:li:dataPlatform:hive,wmf.aqs_hourly,PROD)",
          "aspects": [
            [
              "com.linkedin.pegasus2avro.dataset.UpstreamLineage",
              {
                "upstreams": [
                  {
                    "auditStamp": {
                      "time": 0,
                      "actor": "urn:li:corpuser:unknown"
                    },
                    "dataset": "urn:li:dataset:(urn:li:dataPlatform:hive,wmf.webrequest,PROD)",
                    "type": "TRANSFORMED"
                  }
                ]
              }
            ]
          ]
        }
      ]
    }
  ]
}