acls:
  enable: false
  modify_groups: []
  modify_users: []
  ui_users: []
  view_groups: []
  view_users: []
file_systems: []
master:
  env:
    SPARK_CONF_DIR: /etc/spark3/conf
    SPARK_HOME: /usr/lib/spark3
  files:
    airflow.keytab:
      size: 0
      source: file:///pytest/path/to/airflow.keytab
      timestamp: 0
      type: FILE
      visibility: APPLICATION
  log_level: INFO
  resources:
    fpgas: 0
    gpus: 0
    memory: 9537
    vcores: 2
  script: spark3-submit --driver-cores 2 --conf spark.executorEnv.SPARK_HOME=/usr/lib/spark3
    --conf spark.executorEnv.SPARK_CONF_DIR=/etc/spark3/conf --master yarn --conf
    spark.dynamicAllocation.enabled=true --conf spark.dynamicAllocation.maxExecutors=24
    --conf spark.shuffle.service.enabled=true --conf spark.yarn.maxAppAttempts=1 --conf
    spark.sql.shuffle.partitions=288 --conf spark.sql.sources.partitionOverwriteMode=dynamic
    --conf spark.executor.memoryOverhead=4096 --conf spark.sql.warehouse.dir=/tmp
    --conf spark.yarn.appMasterEnv.SPARK_CONF_DIR=/etc/spark3/conf --conf spark.yarn.appMasterEnv.SPARK_HOME=/usr/lib/spark3
    --executor-cores 12 --executor-memory 24G --driver-memory 10G --keytab airflow.keytab
    --principal airflow --name country_project_page_daily_dag__join_titles__20230220
    --class org.apache.spark.sql.hive.thriftserver.WMFSparkSQLCLIDriver --queue production
    --deploy-mode client hdfs:///wmf/cache/artifacts/airflow/platform_eng/wmf-sparksqlclidriver-1.0.0.jar
    -f https://gitlab.wikimedia.org/repos/security/differential-privacy/-/raw/main/differential_privacy/hql/join_titles.hql
    -d destination_directory=hdfs:///tmp/country_project_page/2023-02-19 -d year=2023
    -d month=2 -d day=19 -d coalesce_partitions=1
max_attempts: 1
name: Airflow SparkSkeinSubmitHook skein launcher country_project_page_daily_dag__join_titles__20230220
node_label: ''
queue: production
services: {}
tags: []
user: ''
